…
    ## # A tibble: 3 × 1
    ##   Status        
    ##   <chr>         
    ## 1 Survey Preview
    ## 2 IP Address    
    ## 3 Survey Test

``` r
# validate survey logic on test data
pc_survey %>%
  filter(Status == "Survey Test")
```

    ## # A tibble: 105 × 71
    ##    StartDate           EndDate             Status      IPAddress Progr…¹ Durat…²
    ##    <dttm>              <dttm>              <chr>       <chr>       <dbl>   <dbl>
    ##  1 2023-11-03 11:03:07 2023-11-03 11:03:07 Survey Test <NA>          100       0
    ##  2 2023-11-03 11:03:07 2023-11-03 11:03:07 Survey Test <NA>          100       0
    ##  3 2023-11-03 11:03:07 2023-11-03 11:03:07 Survey Test <NA>          100       0
    ##  4 2023-11-03 11:03:07 2023-11-03 11:03:07 Survey Test <NA>          100       0
    ##  5 2023-11-03 11:03:07 2023-11-03 11:03:07 Survey Test <NA>          100       0
    ##  6 2023-11-03 11:03:08 2023-11-03 11:03:08 Survey Test <NA>          100       0
    ##  7 2023-11-03 11:03:08 2023-11-03 11:03:08 Survey Test <NA>          100       0
    ##  8 2023-11-03 11:03:08 2023-11-03 11:03:08 Survey Test <NA>          100       0
    ##  9 2023-11-03 11:03:08 2023-11-03 11:03:08 Survey Test <NA>          100       0
    ## 10 2023-11-03 11:03:08 2023-11-03 11:03:08 Survey Test <NA>          100       0
    ## # … with 95 more rows, 65 more variables: Finished <lgl>, RecordedDate <dttm>,
    ## #   ResponseId <chr>, RecipientLastName <lgl>, RecipientFirstName <lgl>,
    ## #   RecipientEmail <lgl>, ExternalReference <lgl>, LocationLatitude <dbl>,
    ## #   LocationLongitude <dbl>, DistributionChannel <chr>, UserLanguage <chr>,
    ## #   Consent <ord>, `Prolific ID Q` <chr>, PreScreen_Q1 <ord>,
    ## #   Commitment_Q1 <ord>, Commitment_Q2 <chr>, Q1 <ord>, Q2 <ord>, Q3 <ord>,
    ## #   Q4 <ord>, Q5 <ord>, Q6 <ord>, Q7 <ord>, Q8 <ord>, Manipulation_Q1 <ord>, …
…
